{
  "entry": {
    "main": [
      "@babel/polyfill",
      "./scripts/main.js",
      "./styles/main.scss"
    ],
    "customizer": [
      "./scripts/customizer.js"
    ]
  },
  "publicPath": "/wp-content/themes/base-framework-sage",
  "devUrl": "http://base-framework-sage.test",
  "proxyUrl": "http://base-framework-sage.test:3003",
  "cacheBusting": "[name]_[hash:8]",
  "watch": [
    "app/**/*.php",
    "config/**/*.php",
    "resources/views/**/*.php"
  ]
}
