<?xml version="1.0" standalone="no"?>
<!DOCTYPE svg PUBLIC "-//W3C//DTD SVG 1.1//EN" "http://www.w3.org/Graphics/SVG/1.1/DTD/svg11.dtd" >
<svg xmlns="http://www.w3.org/2000/svg">
<metadata>Generated by IcoMoon</metadata>
<defs>
<font id="icons" horiz-adv-x="1024">
<font-face units-per-em="1024" ascent="960" descent="-64" />
<missing-glyph horiz-adv-x="1024" />
<glyph unicode="&#x20;" horiz-adv-x="512" d="" />
<glyph unicode="&#xe900;" glyph-name="facebook-f" horiz-adv-x="528" d="M153.4-64v458h-153.4v182h153.4v143.4c0 155.8 95.2 240.6 234.2 240.6 66.6 0 123.8-5 140.4-7.2v-162.8h-96.4c-75.6 0-90.2-36-90.2-88.6v-125.4h170.6l-23.4-182h-147.2v-458z" />
<glyph unicode="&#xe901;" glyph-name="linkedin-in" horiz-adv-x="896" d="M200.6 0h-185.8v598.2h185.8v-598.2zM107.6 679.8c-59.4 0-107.6 49.2-107.6 108.6s48.2 107.6 107.6 107.6c59.4 0 107.6-48.2 107.6-107.6s-48.2-108.6-107.6-108.6zM896 0h-185.4v291.2c0 69.4-1.4 158.4-96.6 158.4-96.6 0-111.4-75.4-111.4-153.4v-296.2h-185.6v598.2h178.2v-81.6h2.6c24.8 47 85.4 96.6 175.8 96.6 188 0 222.6-123.8 222.6-284.6v-328.6z" />
<glyph unicode="&#xe902;" glyph-name="instagram" horiz-adv-x="896" d="M448.2 678c-127.2 0-229.8-102.6-229.8-229.8s102.6-229.8 229.8-229.8 229.8 102.6 229.8 229.8-102.6 229.8-229.8 229.8zM448.2 298.8c-82.2 0-149.4 67-149.4 149.4s67 149.4 149.4 149.4 149.4-67 149.4-149.4-67.2-149.4-149.4-149.4zM741 687.4c0-29.8-24-53.6-53.6-53.6-29.8 0-53.6 24-53.6 53.6s24 53.6 53.6 53.6 53.6-24 53.6-53.6zM893.2 633c-3.4 71.8-19.8 135.4-72.4 187.8-52.4 52.4-116 68.8-187.8 72.4-74 4.2-295.8 4.2-369.8 0-71.6-3.4-135.2-19.8-187.8-72.2s-68.8-116-72.4-187.8c-4.2-74-4.2-295.8 0-369.8 3.4-71.8 19.8-135.4 72.4-187.8s116-68.8 187.8-72.4c74-4.2 295.8-4.2 369.8 0 71.8 3.4 135.4 19.8 187.8 72.4 52.4 52.4 68.8 116 72.4 187.8 4.2 74 4.2 295.6 0 369.6zM797.6 184c-15.6-39.2-45.8-69.4-85.2-85.2-59-23.4-199-18-264.2-18s-205.4-5.2-264.2 18c-39.2 15.6-69.4 45.8-85.2 85.2-23.4 59-18 199-18 264.2s-5.2 205.4 18 264.2c15.6 39.2 45.8 69.4 85.2 85.2 59 23.4 199 18 264.2 18s205.4 5.2 264.2-18c39.2-15.6 69.4-45.8 85.2-85.2 23.4-59 18-199 18-264.2s5.4-205.4-18-264.2z" />
<glyph unicode="&#xe903;" glyph-name="youtube" horiz-adv-x="1152" d="M1099.31 711.834c-12.562 47.3-49.574 84.552-96.568 97.194-85.18 22.972-426.742 22.972-426.742 22.972s-341.56 0-426.742-22.972c-46.994-12.644-84.006-49.894-96.568-97.194-22.824-85.734-22.824-264.61-22.824-264.61s0-178.876 22.824-264.61c12.562-47.3 49.574-83 96.568-95.642 85.182-22.972 426.742-22.972 426.742-22.972s341.56 0 426.742 22.972c46.994 12.642 84.006 48.342 96.568 95.642 22.824 85.734 22.824 264.61 22.824 264.61s0 178.876-22.824 264.61zM464.29 284.818v324.812l285.478-162.41-285.478-162.402z" />
<glyph unicode="&#xe904;" glyph-name="arrow-bottom" d="M950.365 621.428l-466.013-472.25-464.896 473.274 121.577 124.183 343.692-359.61 344.343 358.865 121.297-124.463z" />
<glyph unicode="&#xe905;" glyph-name="arrow-right" d="M291.497 960l519.511-512.599-520.649-511.401-136.537 133.753 395.515 378.039-394.68 378.748 136.84 133.46z" />
<glyph unicode="&#xe906;" glyph-name="arrows" d="M810.667 576h-597.333l298.667 384 298.667-384zM213.333 362.667h597.333l-298.667-384-298.667 384z" />
<glyph unicode="&#xe907;" glyph-name="close" d="M790.493 670.794l-55.699 55.698-222.794-222.793-222.793 222.793-55.698-55.698 222.792-222.794-222.792-222.794 55.698-55.696 222.793 222.794 222.794-222.794 55.699 55.696-222.794 222.794 222.794 222.794z" />
<glyph unicode="&#xe908;" glyph-name="minus" d="M0 391.109v113.778h1024v-113.778h-1024z" />
<glyph unicode="&#xe909;" glyph-name="mute-video" d="M810.667 646.059v-667.392l-341.333 213.333v33.493l341.333 420.565zM938.667 906.069l-66.048 53.931-147.029-181.205-256.256-160.128v-155.563l-85.333-105.131v260.693h-170.667v-426.667h35.968l-163.968-202.069 66.048-53.931 787.285 970.069z" />
<glyph unicode="&#xe90a;" glyph-name="pause-video" d="M68.267 960h273.067v-1024h-273.067v1024zM682.667 960h273.067v-1024h-273.067v1024z" />
<glyph unicode="&#xe90b;" glyph-name="phone" d="M967.109 248.889c-71.109 0-139.374 11.377-203.088 32.426-19.917 6.258-42.101 1.706-58.030-13.654l-125.155-125.158c-160.995 81.92-292.977 213.336-374.897 374.331l125.155 125.725c15.928 15.36 20.48 37.546 14.222 57.458-21.049 63.715-32.426 131.982-32.426 203.093 0 31.289-25.6 56.889-56.889 56.889h-199.111c-31.289 0-56.889-25.6-56.889-56.889 0-534.187 432.925-967.111 967.109-967.111 31.291 0 56.891 25.6 56.891 56.891v199.109c0 31.291-25.6 56.889-56.891 56.889z" />
<glyph unicode="&#xe90c;" glyph-name="player-video" d="M256 930.718l482.718-482.718-482.718-482.718z" />
<glyph unicode="&#xe90d;" glyph-name="plus" d="M568.891 960h-113.782v-455.109h-455.109v-113.782h455.109v-455.109h113.782v455.109h455.109v113.782h-455.109v455.109z" />
<glyph unicode="&#xe90e;" glyph-name="sound-video" d="M213.333 234.667h-213.333v426.667h213.333v-426.667zM298.667 661.333v-426.667l384-213.333v853.333l-384-213.333zM768.341 572.032c31.659-31.701 51.2-75.52 51.115-123.861s-19.712-92.075-51.413-123.733l52.011-52.181c45.099 44.928 73.045 107.136 73.173 175.829 0.085 68.736-27.648 130.901-72.619 176l-52.267-52.053zM859.733 663.125c54.955-55.125 88.832-131.115 88.704-215.083s-34.304-160-89.429-214.997l53.333-53.504c68.779 68.608 111.488 163.584 111.616 268.416 0.213 104.832-42.069 199.723-110.72 268.501l-53.504-53.333z" />
<glyph unicode="&#xe90f;" glyph-name="stop-video" d="M0 960h1024v-1024h-1024v1024z" />
<glyph unicode="&#xe910;" glyph-name="twitter" d="M918.74 656.568c0.65-9.096 0.65-18.194 0.65-27.29 0-277.44-211.166-597.116-597.116-597.116-118.904 0-229.36 34.438-322.274 94.212 16.894-1.948 33.136-2.598 50.68-2.598 98.11 0 188.426 33.136 260.548 89.664-92.264 1.95-169.584 62.376-196.224 145.544 12.996-1.948 25.99-3.248 39.636-3.248 18.842 0 37.686 2.6 55.228 7.146-96.162 19.494-168.286 103.96-168.286 205.97v2.598c27.938-15.594 60.428-25.34 94.862-26.638-56.528 37.686-93.562 102.010-93.562 174.782 0 38.984 10.394 74.72 28.588 105.908 103.31-127.35 258.6-210.516 432.73-219.614-3.248 15.594-5.198 31.836-5.198 48.080 0 115.656 93.564 209.868 209.868 209.868 60.426 0 115.004-25.34 153.34-66.274 47.43 9.096 92.912 26.64 133.198 50.68-15.596-48.732-48.732-89.666-92.264-115.654 42.234 4.546 83.168 16.244 120.852 32.486-28.584-41.582-64.322-78.616-105.256-108.506z" />
<glyph unicode="&#xe911;" glyph-name="whatsapp" horiz-adv-x="896" d="M761.8 765.8c-83.8 84-195.4 130.2-314 130.2-244.8 0-444-199.2-444-444 0-78.2 20.4-154.6 59.2-222l-63-230 235.4 61.8c64.8-35.4 137.8-54 212.2-54h0.2c244.6 0 448.2 199.2 448.2 444 0 118.6-50.4 230-134.2 314zM447.8 82.6c-66.4 0-131.4 17.8-188 51.4l-13.4 8-139.6-36.6 37.2 136.2-8.8 14c-37 58.8-56.4 126.6-56.4 196.4 0 203.4 165.6 369 369.2 369 98.6 0 191.2-38.4 260.8-108.2s112.4-162.4 112.2-261c0-203.6-169.8-369.2-373.2-369.2zM650.2 359c-11 5.6-65.6 32.4-75.8 36-10.2 3.8-17.6 5.6-25-5.6s-28.6-36-35.2-43.6c-6.4-7.4-13-8.4-24-2.8-65.2 32.6-108 58.2-151 132-11.4 19.6 11.4 18.2 32.6 60.6 3.6 7.4 1.8 13.8-1 19.4s-25 60.2-34.2 82.4c-9 21.6-18.2 18.6-25 19-6.4 0.4-13.8 0.4-21.2 0.4s-19.4-2.8-29.6-13.8c-10.2-11.2-38.8-38-38.8-92.6s39.8-107.4 45.2-114.8c5.6-7.4 78.2-119.4 189.6-167.6 70.4-30.4 98-33 133.2-27.8 21.4 3.2 65.6 26.8 74.8 52.8s9.2 48.2 6.4 52.8c-2.6 5-10 7.8-21 13.2z" />
</font></defs></svg>